-------------------------------------------------------------------------------
Test set: SecondTest
-------------------------------------------------------------------------------
Tests run: 1, Failures: 0, Errors: 0, Skipped: 0, Time elapsed: 73.919 sec
